{
  "id": "43f4eb7e.607e14",
  "type": "subflow",
  "name": "Cancel EB Cards (2)",
  "info": "Finds all cards from the EventBrite attendee ID\nand then labels them cancelled.",
  "in": [
    {
      "x": 53,
      "y": 272,
      "wires": [
        {
          "id": "9cb4e7cc.cd4b48"
        }
      ]
    }
  ],
  "out": [
    {
      "x": 1062,
      "y": 273,
      "wires": [
        {
          "id": "17ab5d8.55d07a3",
          "port": 0
        }
      ]
    }
  ],
  "flow": [
    {
      "id": "17e567a0.767b68",
      "type": "function",
      "z": "43f4eb7e.607e14",
      "name": "Find Params",
      "func": "var payload = {\n    \"key\":\"dac6fc0eddaa9ead0c7f61ce735fa56f\",\n    \"token\":\"bbb0c53b8c50da1b3553c2f69a4b5040e451f076333ea5578e5d7480b226ec99\",\n    \"idBoards\": \"56e1cab806f4d27b68704329\",\n    \"modelTypes\": \"cards\",\n    \"query\": \"name:\\\"\" + msg.attendeeId + \"\\\"\",\n}\n\nvar elements = [];\nfor (var key in payload) {\n    elements.push(encodeURIComponent(key)+\"=\"+encodeURIComponent(payload[key]));\n}\n\nmsg.requestParams = elements.join('&');\nreturn msg;",
      "outputs": 1,
      "noerr": 0,
      "x": 341,
      "y": 272,
      "wires": [
        [
          "ce19b50f.8f7258"
        ]
      ]
    },
    {
      "id": "ce19b50f.8f7258",
      "type": "http request",
      "z": "43f4eb7e.607e14",
      "name": "Find Card",
      "method": "GET",
      "ret": "obj",
      "url": "https://api.trello.com/1/search/?{{{requestParams}}}",
      "x": 489,
      "y": 272,
      "wires": [
        [
          "893b4072.bea2b"
        ]
      ]
    },
    {
      "id": "893b4072.bea2b",
      "type": "splitter",
      "z": "43f4eb7e.607e14",
      "name": "Split",
      "property": "payload.cards",
      "x": 628,
      "y": 272,
      "wires": [
        [
          "400a6257.3b87ac"
        ]
      ]
    },
    {
      "id": "400a6257.3b87ac",
      "type": "function",
      "z": "43f4eb7e.607e14",
      "name": "Build Request",
      "func": "msg.cardId = msg.payload.id;\nmsg.payload = {\n    \"key\":\"dac6fc0eddaa9ead0c7f61ce735fa56f\",\n    \"token\":\"bbb0c53b8c50da1b3553c2f69a4b5040e451f076333ea5578e5d7480b226ec99\",\n    \"value\": \"56e223a5152c3f92fd5fb135\"\n}\n\nmsg.payload = JSON.stringify(msg.payload)\nmsg.headers = {\n     'Content-Type' : 'application/json',\n  }\nreturn msg;",
      "outputs": 1,
      "noerr": 0,
      "x": 777,
      "y": 273,
      "wires": [
        [
          "17ab5d8.55d07a3"
        ]
      ]
    },
    {
      "id": "17ab5d8.55d07a3",
      "type": "http request",
      "z": "43f4eb7e.607e14",
      "name": "Label Card",
      "method": "POST",
      "ret": "obj",
      "url": "https://api.trello.com/1/cards/{{cardId}}/idLabels",
      "x": 950,
      "y": 273,
      "wires": [
        []
      ]
    },
    {
      "id": "9cb4e7cc.cd4b48",
      "type": "function",
      "z": "43f4eb7e.607e14",
      "name": "Reorganize Data",
      "func": "msg.payload.profile.cecid = msg.payload.profile.email.split('@')[0]\nmsg.attendeeName = msg.payload.profile.name;\nmsg.attendeeId = msg.payload.id;\nreturn msg;",
      "outputs": 1,
      "noerr": 0,
      "x": 174,
      "y": 273,
      "wires": [
        [
          "17e567a0.767b68"
        ]
      ]
    }
  ]
}