{
  "id": "d919d60b.26e628",
  "type": "subflow",
  "name": "Create EventBrite Card",
  "info": "",
  "in": [
    {
      "x": 121,
      "y": 293,
      "wires": [
        {
          "id": "f929333c.06d6d"
        }
      ]
    }
  ],
  "out": [
    {
      "x": 955,
      "y": 296,
      "wires": [
        {
          "id": "91f401e2.6e0c",
          "port": 0
        }
      ]
    }
  ],
  "flow": [
    {
      "id": "f929333c.06d6d",
      "type": "function",
      "z": "d919d60b.26e628",
      "name": "Reorganize Data",
      "func": "var questions = {}\nmsg.payload.answers.forEach(function(entry) {\n    questions[entry.question_id] = entry.answer || \"\";\n});\nmsg.payload.questions = questions;\nmsg.payload.profile.cecid = msg.payload.profile.email.split('@')[0]\nmsg.attendeeName = msg.payload.profile.name;\nreturn msg;",
      "outputs": 1,
      "noerr": 0,
      "x": 279,
      "y": 295,
      "wires": [
        [
          "355397b9.caac68"
        ]
      ]
    },
    {
      "id": "355397b9.caac68",
      "type": "template",
      "z": "d919d60b.26e628",
      "name": "Card Template",
      "field": "payload",
      "fieldType": "msg",
      "format": "handlebars",
      "template": "![photo](http://wwwin.cisco.com/dir/photo/zoom/{{payload.profile.cecid}}.jpg)\n[Cisco Directory Link](http://wwwin-tools.cisco.com/dir/details/{{payload.profile.cecid}})\n\n**Email:** {{{payload.profile.email}}}\n**BU/Group:** {{{payload.questions.11723116}}}\n**Auxillary event:** {{{payload.questions.11720353}}}\n\n----\n\n###Lightning talk?###\n{{{payload.questions.11697081}}}\n> {{{payload.questions.11697082}}}\n\n###Interests:###\n> {{{payload.questions.11697106}}}",
      "x": 471,
      "y": 295,
      "wires": [
        [
          "25cd1641.da32ea"
        ]
      ]
    },
    {
      "id": "25cd1641.da32ea",
      "type": "function",
      "z": "d919d60b.26e628",
      "name": "Build Request",
      "func": "msg.payload = {\n    \"key\":\"dac6fc0eddaa9ead0c7f61ce735fa56f\",\n    \"token\":\"bbb0c53b8c50da1b3553c2f69a4b5040e451f076333ea5578e5d7480b226ec99\",\n    \"idList\":\"56e1cc67a46d45e367caea0f\",\n    \"name\": msg.attendeeName,\n    \"desc\":msg.payload\n}\n\nmsg.payload = JSON.stringify(msg.payload)\nmsg.headers = {\n     'Content-Type' : 'application/json',\n  }\n\nreturn msg;",
      "outputs": 1,
      "noerr": 0,
      "x": 658,
      "y": 297,
      "wires": [
        [
          "91f401e2.6e0c"
        ]
      ]
    },
    {
      "id": "91f401e2.6e0c",
      "type": "http request",
      "z": "d919d60b.26e628",
      "name": "Create Card",
      "method": "POST",
      "ret": "obj",
      "url": "https://api.trello.com/1/cards/",
      "x": 836,
      "y": 298,
      "wires": [
        []
      ]
    }
  ]
}